4 Reproducible Research | Portfolio
…
# Calculate mean value of controlNegative
controlNegative <- CE_LIQ_FLOW_062_Tidydata %>% filter(CE_LIQ_FLOW_062_Tidydata$expType == "controlNegative")
controlNegative_mean <- mean(controlNegative$RawData) 
controlNegative_mean

## [1] 85.9

# Normalize data
CE_LIQ_FLOW_062_Tidydata <- CE_LIQ_FLOW_062_Tidydata %>% mutate(normalized = CE_LIQ_FLOW_062_Tidydata$RawData / controlNegative_mean)

# Inspect the data types of columns RawData, compName, expType, compConcentration and normalized
CE_LIQ_FLOW_062_Tidydata %>% select(RawData, compName, compConcentration, expType, normalized)

## # A tibble: 359 × 5
##    RawData compName                   compConcentration expType    normalized
##      <dbl> <chr>                                  <dbl> <chr>           <dbl>
##  1      44 2,6-diisopropylnaphthalene              4.99 experiment      0.512
##  2      37 2,6-diisopropylnaphthalene              4.99 experiment      0.431
##  3      45 2,6-diisopropylnaphthalene              4.99 experiment      0.524
##  4      47 2,6-diisopropylnaphthalene              4.99 experiment      0.547
##  5      41 2,6-diisopropylnaphthalene              4.99 experiment      0.477
##  6      35 2,6-diisopropylnaphthalene              4.99 experiment      0.407
##  7      41 2,6-diisopropylnaphthalene              4.99 experiment      0.477
##  8      36 2,6-diisopropylnaphthalene              4.99 experiment      0.419
##  9      40 2,6-diisopropylnaphthalene              4.99 experiment      0.466
## 10      38 2,6-diisopropylnaphthalene              4.99 experiment      0.442
## # ℹ 349 more rows
…
