5 SQL | _main.knit
…
flu_dengue <- full_join(flu_tidy, dengue_tidy, by = c("Country", "year"), suffix = c("_flu", "_dengue"))

# Rename 'year' to 'Year' in flu_dengue for consistency with gapminder_data
flu_dengue <- flu_dengue %>% rename(Year = year)

# Join with gapminder
flu_dengue_gapminder <- inner_join(flu_dengue, gapminder_data, by = c("Country", "Year"))

# Check the resulting dataframe
print(flu_dengue_gapminder)

## # A tibble: 155,161 × 11
##    Country   Value_flu Year  Value_dengue infant_mortality life_expectancy
##    <chr>         <dbl> <chr>        <dbl>            <dbl>           <dbl>
##  1 Argentina        NA 2002        NA                 17.1            74.3
##  2 Australia        NA 2002        NA                  5              80.3
##  3 Austria          NA 2002        NA                  4.4            78.8
##  4 Belgium          NA 2002        NA                  4.4            78.2
##  5 Bolivia          NA 2002         0.101             53.7            68.7
##  6 Brazil          174 2002         0.073             24.3            71.4
##  7 Bulgaria         NA 2002        NA                 16.3            72.1
##  8 Canada           NA 2002        NA                  5.3            79.6
##  9 Chile            NA 2002        NA                  8.3            77.7
## 10 France           NA 2002        NA                  4.2            79.4
## # ℹ 155,151 more rows
## # ℹ 5 more variables: fertility <dbl>, population <dbl>, gdp <dbl>,
## #   continent <fct>, region <fct>
…
